{
  "release": "dev",
  "server_port": 8080,
  "httpClientOptions": {
  },
  "maxWait": 3000,
  "api-key": "ddbe3c7c-14c1-4b83-ad1d-978913e32cdd",
  "http_pipelining": true,
  "http_pool_size": 100,
  "sql_db_conn_url" : "jdbc:mysql://localhost:3306/bit_tracker?autoReconnect=true&failOverReadOnly=false&maxReconnects=10&useUnicode=true&characterEncoding=UTF-8",
  "sql_db_user" : "root",
  "sql_db_passwd" : "",
  "max_jdbc_poolsize" : 25,
  "exponential_backoff_max_retry":10,
  "exponential_backoff_delay":5,
  "crypto_service_end_point":"api.coindesk.com",
  "crypto_service_api":"/v1/bpi/currentprice/USD.json",
  "crypto_price_refresh_time":6000,
  "apiTimeout" : 4000


}